{
  "host": "ec2-18-203-7-163.eu-west-1.compute.amazonaws.com",
  "database": "dep65r8c2mo2vn",
  "user": "vcbnluhfxjezzt",
  "password":"bf7f33b745ff9bbb8340fb1704615aea6d0e0bcf552ce1040dd6024a69d27e6e"
}